<svg width="33" height="32" viewBox="0 0 33 32" fill="none" xmlns="http://www.w3.org/2000/svg">
<path d="M5.83325 9.33333L14.6999 15.9833C15.7666 16.7833 17.2333 16.7833 18.2999 15.9833L27.1666 9.33327" stroke="white" stroke-width="2" stroke-linecap="round" stroke-linejoin="round"/>
<rect x="4.5" y="6.66667" width="24" height="18.6667" rx="2" stroke="white" stroke-width="2" stroke-linecap="round"/>
</svg>
