<svg width="32" height="32" viewBox="0 0 32 32" fill="none" xmlns="http://www.w3.org/2000/svg">
<path d="M2.925 9.46273C2.78591 9.24624 2.73682 8.984 2.78819 8.73185C2.83955 8.47971 2.98731 8.25757 3.2 8.11273C6.93223 5.43824 11.4085 4 16 4C20.5916 4 25.0678 5.43824 28.8 8.11273C29.0127 8.25757 29.1605 8.47971 29.2118 8.73185C29.2632 8.984 29.2141 9.24624 29.075 9.46273L16.8375 28.6752C16.7487 28.8173 16.6253 28.9345 16.4788 29.0157C16.3323 29.0969 16.1675 29.1395 16 29.1395C15.8325 29.1395 15.6677 29.0969 15.5212 29.0157C15.3747 28.9345 15.2513 28.8173 15.1625 28.6752L2.925 9.46273Z" stroke="white" stroke-width="2" stroke-linecap="round" stroke-linejoin="round"/>
<path d="M4.5874 12.0748C7.80653 9.43854 11.8391 7.99805 15.9999 7.99805C20.1607 7.99805 24.1933 9.43854 27.4124 12.0748" stroke="white" stroke-width="2" stroke-linecap="round" stroke-linejoin="round"/>
<path d="M20.5375 22.8627C20.0134 22.7135 19.5315 22.444 19.13 22.0757C18.7285 21.7073 18.4186 21.2503 18.2248 20.7411C18.0311 20.2318 17.9589 19.6844 18.0141 19.1423C18.0692 18.6003 18.2502 18.0786 18.5425 17.6188C18.8348 17.159 19.2304 16.7738 19.6979 16.4938C20.1653 16.2139 20.6917 16.047 21.235 16.0063C21.7783 15.9657 22.3237 16.0525 22.8276 16.2597C23.3314 16.467 23.78 16.7891 24.1375 17.2002" stroke="white" stroke-width="2" stroke-linecap="round" stroke-linejoin="round"/>
<path d="M7.23755 16.225C7.46946 15.6321 7.85869 15.1137 8.36334 14.7256C8.86798 14.3375 9.46893 14.0944 10.1015 14.0224C10.734 13.9505 11.3742 14.0524 11.9531 14.3173C12.5321 14.5821 13.0278 14.9999 13.3869 15.5255C13.7461 16.0512 13.9551 16.6648 13.9914 17.3004C14.0277 17.936 13.8899 18.5695 13.593 19.1326C13.296 19.6957 12.8511 20.1672 12.3061 20.4962C11.7611 20.8253 11.1367 20.9995 10.5 21H10.275" stroke="white" stroke-width="2" stroke-linecap="round" stroke-linejoin="round"/>
</svg>
