<svg width="25" height="24" viewBox="0 0 25 24" fill="none" xmlns="http://www.w3.org/2000/svg">
<path d="M9.5 5.25V18.75" stroke="#050505" stroke-width="2" stroke-linecap="round" stroke-linejoin="round"/>
<path d="M2.75 15.675C2.74905 15.5023 2.80849 15.3346 2.91806 15.2011C3.02762 15.0676 3.18042 14.9765 3.35 14.9437C4.02455 14.8005 4.62945 14.43 5.06348 13.8941C5.49751 13.3583 5.73434 12.6896 5.73434 12C5.73434 11.3104 5.49751 10.6417 5.06348 10.1059C4.62945 9.57002 4.02455 9.19948 3.35 9.05625C3.18042 9.02346 3.02762 8.93242 2.91806 8.79889C2.80849 8.66535 2.74905 8.49773 2.75 8.325V6C2.75 5.80109 2.82902 5.61032 2.96967 5.46967C3.11033 5.32902 3.30109 5.25 3.5 5.25H21.5C21.6989 5.25 21.8897 5.32902 22.0303 5.46967C22.171 5.61032 22.25 5.80109 22.25 6V8.325C22.251 8.49773 22.1915 8.66535 22.0819 8.79889C21.9724 8.93242 21.8196 9.02346 21.65 9.05625C20.9755 9.19948 20.3706 9.57002 19.9365 10.1059C19.5025 10.6417 19.2657 11.3104 19.2657 12C19.2657 12.6896 19.5025 13.3583 19.9365 13.8941C20.3706 14.43 20.9755 14.8005 21.65 14.9437C21.8196 14.9765 21.9724 15.0676 22.0819 15.2011C22.1915 15.3346 22.251 15.5023 22.25 15.675V18C22.25 18.1989 22.171 18.3897 22.0303 18.5303C21.8897 18.671 21.6989 18.75 21.5 18.75H3.5C3.30109 18.75 3.11033 18.671 2.96967 18.5303C2.82902 18.3897 2.75 18.1989 2.75 18V15.675Z" stroke="#050505" stroke-width="2" stroke-linecap="round" stroke-linejoin="round"/>
</svg>
